.......................
----------------------------------------------------------------------
Ran 23 tests in 0.744s

OK
Name             Stmts   Miss Branch BrPart  Cover   Missing
------------------------------------------------------------
Collatz.py          77      0     34      0   100%
TestCollatz.py      95      0      0      0   100%
------------------------------------------------------------
TOTAL              172      0     34      0   100%
